{
  "lookup": {
    "eJyLrq6NBQAEOAGx": "action_listen",
    "eJyLrq7VUaguKEoti09MLsnMz7NSqIYw4vMSc1OtFKCcnMziktQ8oNrS4tQioJrMPCC3xEqhMr+0pDQpNb4kvyAzubY2FgDWXh75": "utter_show_interest_topic",
    "eJyFjFEKgCAQBa/iATqBV4lYShZaKJX1WYR494z89+8NzLy51MmUqHzR6iDBW1P+QX492ZoOhySwb25OrM0R3xDWPCEjb0wIUVwdfGWAldIebvp65YQejn6XF2TeQXQ=": "utter_ask_specific_youtuber",
    "eJytjEEKgDAMBL/SB/iCfkUk1BIxqG1JUkWKf7di71687cDO9OXqTEmMOzivFIM15R0Q3IbWNFhJFEP9ZkGuHwoV1ZozZs0jgsZE/vpoZVVkkDke8PiMok38o+tkAUnoaSIPzefP8nADkoRkpQ==": "action_listen",
    "eJytj0EKQjEMRK/SA3iCXkUk1JCPQU1LkipSencjdq+guxmY92D2Y+7SaEo3KOhcJafxDiDlSjmtcmFzkth2I40NS1TP6VG79yOB18Y4P7i6OynYqd7hxSuZL/Af3mJnsEbIGyMsXn80f/deIRRb/BGkOQ9P2pKEXw==": "utter_show_interest_youtuber",
    "eJytkFEKAjEMRK/SA3iCXkUk1JDFoKYlSRUpe3cr2x+/Vtz9y8DMSybHNh9CK0oPSOicJYa2DCDpTjEMcWNzku6tRto9LF16DK9cvZ4JPBfGeYVV3UnBLvkJn7yS+QjuwU12BSuEPDHCyOtG8m/tFTpi6n0E6Z8frB77veD0Bj7Uqqw=": "action_listen",
    "eJytkF0KAjEMhK/SA3iCXkUk1JrFoKYlSZWl9O52se/17y0DM18y2de2czUL3iFEo8Te1dcAHG7o3RBXUkPu3qIo3UPcpXm3pmLliGApU2wTVjFDAT2nB2x5QbUR/Ac36AU0Y6SFIoy8/Eh+r71ARyy9D0f85gfTYz9ZMDn5hLy2dngCRVzEGQ==": "utter_anything_else",
    "eJytkF0OAiEMhK/CATwBVzGmQey6jWshtGgI2buLkVfD+vPWSWa+trOv687UmPAGzisFtqa+BmB3RWu6WEgUuXmzYGoe4ibVmhKy5iOChkh+HbCyKiaQOdzhmU8o2oP/4Dq5gET0NJGHnk8/krd9n6AhpvYPe/ymg+GxnywYnHxCLhv75KIz8RlwEXwHOjwAOF3gFw==": "action_listen",
    "eJytkFsOQiEMRLfCAlwBWzGmQVJio7eQtmgMYe9i5B9ff51k5rTTfes714rgFUI0yuxdew3AYUPvpriQGvLwVkUZHuIhzbt7rlaPCJYLxb5gVTMU0FO+wTMvqDaD/+AGPYMWjJQowszLj+T32gsMRBp9OOI3P1ge+8mCxckhJZKt98MDzjLE3g==": "utter_anything_else",
    "eJytkN0NwjAMhFfJAEyQVRCyQuRQi9apbAdURd2dIPqKUn7efNLdZ/uOdT24OgveIESjzN7V1wAcJvRuEyOpITdvUZTmIW7SvFtysXJGsDxTXDusYoYCOuQ7PPOCalvwH9ygV9AZIyWKsOXlR/K+7wUaIrV/OOI3HXSP/WRB5+SQEsm0s1FebCC+AI6K71GnB7vL4aE=": "action_listen",
    "eJyLrq7VUaguKEoti09MLsnMz7NSqIYw4vMSc1OtFKCcnMziktQ8oNrS4tQioJrMPCC3xEohvSg1taS2NhYA6dwbhQ==": "utter_greet",
    "eJyLrq7VUaguKEoti09MLsnMz7NSqIYw4vMSc1OtFKCcnMziktQ8oNrS4tQioJrMPCC3xEohvSg1taSWgBmlJSWpRfEQpbhMiAUAQvc0lw==": "utter_how_are_you",
    "eJyLrq7VUaguKEoti09MLsnMz7NSqIYw4vMSc1OtFKCcnMziktQ8oNrS4tQioJrMPCC3xEohvSg1taSWgBmlJSWpRfEQpZSYkJFfHp9YlBpfmV+K05xYAPWIUDM=": "action_listen",
    "eJylj9EJgDAMRFfpAE7QVURC0aAF20iaKlK6uxH9L+jfHTwed32pnSkb4w5uFE/RmvIEiC6gNW9ZfRKMyuaErIyPWsWamRGlNhxZBBke9I9hoQMcI5yUP3oabwLRdO90KhouzsZsEQ==": "utter_happy",
    "eJylj9EJgDAMRFfpAE7QVURC0KAFbUqaKlLc3Yp+q+jfHTwed3XeKpOD0AzYqmNvTT4DeJzImquMLir5wqZIUhjnS1VreiHS7cGRVEngRP8YBl4AhWDl9NHz8GZi7o6d+HYQhrDea5odjdqHOA==": "utter_ask_for_interest",
    "eJylkNEKwjAMRX+lH+AX9FdEQphXLbqmpKkyyv7djvmwh8Fke8uFk8NNznU8uZoUb+LOgkTv6jxQ5B7e/cIrZENsbMnQxoTYonl3V8DGDUcxg9KMHjE85EOsoEHKTs/GNb3IderJ/xbilIbjGs5PuonStK/IK09aGi9f9j6m7w==": "action_listen",
    "eJylkNEJwzAMRFfxAJ3Aq5QiRCu3prFlZLklGO9eh+Qz4ND86eD0uLtrbRdTk9AH8K6eozV1PSBiIGs2MfmsFLu3ZJLu8bFLteYpRNoGjKJKAqv1DOHFX0AhmLn8yRm0CcyPJSceDYQpzecxmN/gWGD5F8o7Ix0nDhqic15Ca7cfg6vBIQ==": "utter_ask_preference",
    "eJylj1EKgCAQBa/iATqBV4lYpJYSalfWtRDx7gn2H9TfGxgG3ljqYEoQPMHN6pmsKX0AuQOteWD3UZGamyJKczw1VGtWQdT60kiqKNDVP4WNL3CCkDl97Ly8OZgXSLS5EHKt0w2oxW0D": "utter_cheer_up",
    "eJylj9EJwzAMRFfxAJ3Aq5QiTHrEhkYyipQSTHavIf13aH8OHTweuns7bqFVxUZpsiIcQzsP4rQghm95ldXAnfUV2pnCvVoMswJ2DBxuBqUT/ceQ5U1JQbv4j57BmkXkSc451bpfe2nK6Ol15Hp8AFq1ikU=": "utter_did_that_help",
    "eJytj9EJwzAMRFfxAJ3Aq4QiRCwqQ2IZRUoJJrvXkP67tP05dPB46KZ23kKrSjvgbFlKDO06oOBKMbzLkjej0lnfSDuTS68Ww0OJ7Bw43IwULvQXA8sTUAkO8S89gzWrSAIvjLUen700M/X0+g9XygmM0YBpGQrvLwp9qYU=": "action_listen",
    "eJytj2EKwyAMha/iAXoCrzJKCDWdQo2Sxo0i3n1C+9+x7k94Dz4+8h61TaZmoRfgoiGxNfUMwBjJmqtsYVfizpadpDOBe1VrnkKkbeAoqiRwoncMPr0BheBI5UfPYE1MyUFhjzkf3720eOq35H+4XHCgHhU8bTeFg524rkFia/MHSljDtw==": "utter_happy",
    "eJytkNEJwzAMRFfxAJ3Aq5QiRKzUhlg2itwSTHavafpbHJL8CB0cT7q71/VmahZ6AQ4aEltTtwUYI1nzE1OYlbh5y0zSPIGbVGueQqRrh1FUSWCzniH49AYUgiWVg5xOmpiSg8Iec172vTR4arPkK1guOFCPCp6mk8BOThzHIHFn6d97fxGPD+Cn3TI=": "utter_ask_for_interest",
    "eJytklEKwzAIhq+SA+wEucoYIo1dwtoYjNkooXdfum5vg5Z1L6Lw++kvnut8MjUJ3QE7DRytqWsCEUey5l0MISvFpi2ZpGlCbKVacxUinTcYRZUEVukRgucHoBBMXH7kbLgZmR2U6DGlad9KnacWS/oHywUH6lHB03AQuOET+z7IuPPor3mHEJhv0LPA0iuUvzzBh3Z5AuNg+z0=": "action_listen",
    "eJytklEKwzAIhq+SA+wEvcoYIo1dwpoYjNkopXdftu5xkLDuRRR+P/3F87qdzJqE7oCjeo6DWfcEIgYazKeYfVaKVVsySdX4WEsdzFWIdGswiioJ7NIjBMcPQCFYuPzIabgJzBZKdJjS0rfS6KjGkv7Bst6COlRwNB8ENnziNHkJnUd/zzuEwHyDiQVevUL5yxP00TpdXZ4rLBV+": "utter_ask_preference",
    "eJytj9EJwzAMRFfxAJ3Aq5QiTHzUhkQyjtwSTHavIP13aPoj7uDx0N37fnO9VLwoTJqFvetHIA4LvPuWOa8KNratqMZktqrePSug+8DRVFHpQK8YkrwpVNAm7UfPYM0iEqlxCqVs516aEuy28g9XzJE0BaWE+aJwsDOCTfH4AMPBwvI=": "utter_goodbye",
    "eJytj1EKwyAQRK/iAXoCr1LKYuMQhWQVs7aI5O4Vkt9iSPKzzMDwduZZ14eqMeFDZhAfWKu6CWIzQ6vdTH4RcMvmBallPDcrWo0JkLXDyCJItEWvEFz4kkmgEvJJTmfNHIKlzM7EWI5VGhzazfEOlvWWxBkhh+kisLPTgg92GtvTd8E/xOsHJ/Tcbw==": "action_listen",
    "eJytkFEOAiEMRK/CATzBXsWYBrHrNq6F0KIhZO8uRv7B1b82mXmd6bFsB1NCxAdYp+R5MuUzANs7TqYtK4kiV20SjFVDXFedTPZJ0xlBfSC3dVhJFSPI4p/w9kcUbcZ/cK3cQAI6mslB88cfyWPtI1TEXPuwwz0/6Ib95kAn8gU5D/6Tsy7EV8BVcB9oKMvpBTq4+YQ=": "utter_disappointed_bye",
    "eJytkNENgzAMRFfJAJ2AVarKCsEUC+pEsdMqQuzeoPJbhVL+bOnu+c7XebmYOUR8gnVKnhszfwZg+8DGbMtEoshFmwRj0RCXVRuTfdLUIqgP5JYKK6liBBn8C1Z/RNHNeAbXyggS0FFPDjZ//JO8r32EguhLH3Z45AfVsL8cqETukPPOf3LWgfgOOAkeA52WpSOxIfjV2EGbv8a5vQGvpRbK": "action_listen",
    "eJytkNENwjAMRFfJAEzQVRCyQnCoRetUtgOqquxOKvqfUvizpbvnO5+XcnLLJPgEH4wSd275DMB+xM5ty0BqyFWbFaVqiOtqnZtTtnxFsDRRKA1WNkMB7dMLVr+g2mb8B9frA3TCQJECbH75kbyvvUBFxNqHAx75QTPsNwcakX2MJOPOj/JsPfEdcFA8imrkuSHPpVzeJVP7Dg==": "utter_disappointed_bye",
    "eJytkFEKgzAMhq/SA+wEXmWMUGs6wzQtTboh4t1X0cdBndtbAvm/fMl1Xi5mjgmfYJ1S4MbMWwFsR2zM3gwkilxms2AqM8Sl1cZMIWtuETREckuFlVUxgfThBWs+oege/AfXygMkoiNPDvZ8+pF87PoEBeHLPezwzA+qst8sqChb7ymNBz/Kk/bEd8BB8Cyq4tMhT8dsOhIbY1iDHbTTB6GNdXsDD0cYVA==": "action_listen"
  }
}